Tidy Tuesday
…
After looking at the EPA R&D budget, I thought it would be interesting to plot air pollution trends along side the budget. I gathered data from the EPA on various types of air pollution. I focus on PM2.5 here because this form of pollution can have a lot of health impacts on the population and is more common than other types of pollution.

library(readxl)
pollution <- as.tibble(read_xlsx("pollutiondata.xlsx", sheet = 2))

## readxl works best with a newer version of the tibble package.
## You currently have tibble v1.4.2.
## Falling back to column name repair from tibble <= v1.4.2.
## Message displays once per session.

pollution

## # A tibble: 28 x 20
##     year FUEL_COMB_ELEC_~ FUEL_COMB_INDUS~ FUEL_COMB_OTHER `CHEMICAL _ALLI~
##    <dbl>            <dbl>            <dbl>           <dbl>            <dbl>
##  1  1990             121              177             611              47  
##  2  1991             105              151             638              43  
##  3  1992             106              159             662              45  
##  4  1993             112              172             568              41  
##  5  1994             108              183             550              49  
##  6  1995             107              203             589              42  
##  7  1996             157.             152.            356.             38.5
##  8  1997             161.             148.            356.             39.1
##  9  1998             130.             147.            354.             39.6
## 10  1999             621.             258.            400.             45.1
## # ... with 18 more rows, and 15 more variables: METALS_PROCESSING <dbl>,
## #   PETROLEUM_RELATED_INDUSTRIES <dbl>, OTHER_INDUSTRIAL_PROCESSES <dbl>,
## #   SOLVENT_UTILIZATION <dbl>, STORAGE_TRANSPORT <dbl>, `WASTE_DISPOSAL
## #   _RECYCLING` <dbl>, HIGHWAY_VEHICLES <dbl>, OFF_HIGHWAY <dbl>,
## #   MISCELLANEOUS <dbl>, Total <dbl>, Miscellaneous <dbl>,
## #   Total_without_miscellaneous <dbl>, Wildfires <dbl>,
## #   Total_without_wildfires <dbl>, Miscellaneous_without_wildfires <dbl>
…
